Sequence_Detector/wave/tb_nonoverlap.vcd
$date
	Tue Jan 27 11:32:31 2026
$end
$version
	Icarus Verilog
$end
$timescale
	1s
$end
$scope module tb_nonoverlap $end
$var wire 1 ! y $end
$var reg 1 " clk $end
$var reg 1 # rst $end
$var reg 1 $ x $end
$scope module DUT $end
$var wire 1 " clk $end
$var wire 1 # rst $end
$var wire 1 $ x $end
$var reg 2 % next_state [1:0] $end
$var reg 2 & state [1:0] $end
$var reg 1 ! y $end
$upscope $end
$upscope $end
$enddefinitions $end
$comment Show the parameter values. $end
$dumpall
$end
#0
$dumpvars
bx &
bx %
0$
1#
0"
0!
$end
#5
b0 %
b0 &
1"
#10
b1 %
0"
1$
0#
#15
b1 &
1"
#20
b10 %
0"
0$
#25
b0 %
b10 &
1"
#30
b11 %
0"
1$
#35
1!
b0 %
b11 &
1"
#40
0"
#45
b1 %
0!
b0 &
1"
#50
b0 %
0"
0$
#55
1"
#60
b1 %
0"
1$
#65
b1 &
1"
