Finite State Machines/UART_Tx_FSM/tb_uart_tx.vcd
$date
	Sun Mar 15 17:58:25 2026
$end
$version
	Icarus Verilog
$end
$timescale
	1ps
$end
$scope module tb_uart_tx $end
$var wire 1 ! tx_done $end
$var wire 1 " tx $end
$var reg 1 # clk $end
$var reg 8 $ data_in [7:0] $end
$var reg 1 % rst $end
$var reg 1 & tx_start $end
$var reg 32 ' error_count [31:0] $end
$scope module dut $end
$var wire 1 # clk $end
$var wire 8 ( data_in [7:0] $end
$var wire 1 % rst $end
$var wire 1 & tx_start $end
$var wire 1 ) shift_reg_lsb $end
$var reg 4 * bit_count [3:0] $end
$var reg 2 + next_state [1:0] $end
$var reg 8 , shift_reg [7:0] $end
$var reg 2 - state [1:0] $end
$var reg 1 " tx $end
$var reg 1 ! tx_done $end
$upscope $end
$scope task expect_bit $end
$upscope $end
$scope task sample_settled $end
$upscope $end
$scope task send_byte_and_check $end
$upscope $end
$upscope $end
$enddefinitions $end
$comment Show the parameter values. $end
$dumpall
$end
#0
$dumpvars
bx -
bx ,
bx +
bx *
x)
b0 (
b0 '
0&
1%
b0 $
0#
1"
0!
$end
#5000
b0 +
b0 -
b0 *
1#
#10000
0#
#15000
1#
#20000
0#
#25000
0%
1#
#30000
b10100101 $
b10100101 (
0#
#35000
1#
#40000
0#
#45000
1#
#50000
b1 +
1&
0#
#55000
1)
0"
b10 +
b10100101 ,
b1 -
1#
#60000
b10 +
0&
0#
#65000
1"
b10 -
1#
#70000
0#
#75000
0"
0)
b1 *
b1010010 ,
1#
#80000
0#
#85000
1"
1)
b101001 ,
b10 *
1#
#90000
0#
#95000
0"
0)
b11 *
b10100 ,
1#
#100000
0#
#105000
b1010 ,
b100 *
1#
#110000
0#
#115000
1"
1)
b101 *
b101 ,
1#
#120000
0#
#125000
0"
0)
b10 ,
b110 *
1#
#130000
0#
#135000
1"
b11 +
1)
b111 *
b1 ,
1#
#140000
0#
#145000
1!
0)
b0 +
b11 -
b0 ,
b1000 *
1#
#150000
0#
#155000
0!
b0 *
b0 -
1#
#160000
b111100 $
b111100 (
0#
#165000
1#
#170000
0#
#175000
1#
#180000
b1 +
1&
0#
#185000
0"
b10 +
b1 -
b111100 ,
1#
#190000
b10 +
0&
0#
#195000
0"
b10 -
1#
#200000
0#
#205000
b11110 ,
b1 *
1#
#210000
0#
#215000
1"
1)
b10 *
b1111 ,
1#
#220000
0#
#225000
b111 ,
b11 *
1#
#230000
0#
#235000
b100 *
b11 ,
1#
#240000
0#
#245000
b1 ,
b101 *
1#
#250000
0#
#255000
0"
0)
b110 *
b0 ,
1#
#260000
0#
#265000
b11 +
b111 *
1#
#270000
0#
#275000
1!
1"
b0 +
b1000 *
b11 -
1#
#280000
0#
#285000
0!
b0 -
b0 *
1#
#290000
b0 $
b0 (
0#
#295000
1#
#300000
0#
#305000
1#
#310000
b1 +
1&
0#
#315000
0"
b10 +
b1 -
1#
#320000
b10 +
0&
0#
#325000
0"
b10 -
1#
#330000
0#
#335000
b1 *
1#
#340000
0#
#345000
b10 *
1#
#350000
0#
#355000
b11 *
1#
#360000
0#
#365000
b100 *
1#
#370000
0#
#375000
b101 *
1#
#380000
0#
#385000
b110 *
1#
#390000
0#
#395000
b11 +
b111 *
1#
#400000
0#
#405000
1!
1"
b0 +
b11 -
b1000 *
1#
#410000
0#
#415000
0!
b0 *
b0 -
1#
#420000
b11111111 $
b11111111 (
0#
#425000
1#
#430000
0#
#435000
1#
#440000
b1 +
1&
0#
#445000
0"
b10 +
1)
b1 -
b11111111 ,
1#
#450000
b10 +
0&
0#
#455000
1"
b10 -
1#
#460000
0#
#465000
b1111111 ,
b1 *
1#
#470000
0#
#475000
b10 *
b111111 ,
1#
#480000
0#
#485000
b11111 ,
b11 *
1#
#490000
0#
#495000
b100 *
b1111 ,
1#
#500000
0#
#505000
b111 ,
b101 *
1#
#510000
0#
#515000
b110 *
b11 ,
1#
#520000
0#
#525000
b11 +
b1 ,
b111 *
1#
#530000
0#
#535000
0)
1!
b0 +
b1000 *
b0 ,
b11 -
1#
#540000
0#
#545000
0!
b0 -
b0 *
1#
