Finite State Machines/ELEVATOR_CONTROLLER/tb_elevator.vcd
$date
	Sun Mar 15 13:00:23 2026
$end
$version
	Icarus Verilog
$end
$timescale
	1ps
$end
$scope module tb_elevator $end
$var wire 1 ! motor_up $end
$var wire 1 " motor_down $end
$var wire 1 # door_open $end
$var wire 2 $ current_floor [1:0] $end
$var reg 1 % clk $end
$var reg 2 & last_floor [1:0] $end
$var reg 1 ' last_motor_down $end
$var reg 1 ( last_motor_up $end
$var reg 1 ) req0 $end
$var reg 1 * req1 $end
$var reg 1 + req2 $end
$var reg 1 , rst $end
$var reg 32 - cycle [31:0] $end
$scope function b1 $end
$upscope $end
$scope module dut $end
$var wire 1 % clk $end
$var wire 1 ) req0 $end
$var wire 1 * req1 $end
$var wire 1 + req2 $end
$var wire 1 , rst $end
$var reg 2 . current_floor [1:0] $end
$var reg 1 # door_open $end
$var reg 1 " motor_down $end
$var reg 1 ! motor_up $end
$var reg 2 / next_state [1:0] $end
$var reg 2 0 state [1:0] $end
$var reg 2 1 target_floor [1:0] $end
$upscope $end
$scope begin $unm_blk_21 $end
$var integer 32 2 delta [31:0] $end
$upscope $end
$scope task apply_reset $end
$upscope $end
$scope task drive_requests $end
$upscope $end
$scope task pulse_request $end
$upscope $end
$scope task request_combo_until_door $end
$upscope $end
$scope task request_floor_until_door $end
$upscope $end
$scope task wait_cycles $end
$upscope $end
$scope task wait_for_door_open $end
$scope begin wait_loop $end
$upscope $end
$upscope $end
$upscope $end
$enddefinitions $end
$comment Show the parameter values. $end
$dumpall
$end
#0
$dumpvars
b0 2
bx 1
bx 0
bx /
bx .
b0 -
1,
0+
0*
0)
0(
0'
b0 &
0%
bx $
0#
0"
0!
$end
#5000
b0 1
b0 /
b0 $
b0 .
b0 0
bx &
b1 -
1%
#10000
0%
#15000
b0 &
0,
b10 -
1%
#20000
0%
#25000
b1 /
b10 1
1+
b11 -
1%
#30000
0%
#35000
1!
b1 0
b100 -
1%
#40000
0%
#45000
b10 1
1(
b1 $
b1 .
b101 -
1%
#50000
0%
#55000
b11 /
b1 &
b10 $
b10 .
b1 2
b110 -
1%
#60000
0%
#65000
1#
0!
b0 /
b10 &
b11 0
b111 -
1%
#70000
0%
#75000
0#
0(
b0 0
b0 /
b0 2
0+
b1000 -
1%
#80000
0%
#85000
b1001 -
1%
#90000
0%
#95000
b1010 -
1%
#100000
0%
#105000
b10 /
b0 1
1)
b1011 -
1%
#110000
0%
#115000
1"
b10 0
b1100 -
1%
#120000
0%
#125000
b0 1
1'
b1 $
b1 .
b1101 -
1%
#130000
0%
#135000
b11 /
b1 &
b0 $
b0 .
b11111111111111111111111111111111 2
b1110 -
1%
#140000
0%
#145000
1#
0"
b0 /
b0 &
b11 0
b1111 -
1%
#150000
0%
#155000
0#
0'
b0 0
b0 /
b0 2
0)
b10000 -
1%
#160000
0%
#165000
b10001 -
1%
#170000
0%
#175000
b10010 -
1%
#180000
0%
#185000
b1 /
b1 1
1*
b10011 -
1%
#190000
0%
#195000
1!
b1 0
b10100 -
1%
#200000
0%
#205000
b11 /
1(
b1 $
b1 .
b10101 -
1%
#210000
0%
#215000
b1 1
1#
0!
b0 /
b1 &
b10 $
b10 .
b11 0
b1 2
b10110 -
1%
#220000
0%
#225000
0#
b10 &
0(
b0 0
b0 /
b10 1
0*
b10111 -
1%
#230000
0%
#235000
b0 2
b11000 -
1%
#240000
0%
#245000
b11001 -
1%
#250000
0%
#255000
b11 /
1+
1)
b11010 -
1%
#260000
0%
#265000
1#
b0 /
b11 0
b11011 -
1%
#270000
0%
#275000
0#
b0 0
b0 /
0+
0)
b11100 -
1%
#280000
0%
#285000
b11101 -
1%
#290000
0%
#295000
b11110 -
1%
#300000
0%
#305000
b11 /
1+
1*
1)
b11111 -
1%
#310000
0%
#315000
1#
b0 /
b11 0
b100000 -
1%
#320000
0%
#325000
0#
b0 0
b0 /
0+
0*
0)
b100001 -
1%
#330000
0%
#335000
b100010 -
1%
#340000
0%
#345000
b100011 -
1%
#350000
0%
#355000
b100100 -
1%
#360000
0%
#365000
b100101 -
1%
#370000
0%
#375000
b100110 -
1%
