Vending_Machine_FSM/wave/vending_machine.vcd
$date
	Fri Jan 02 20:31:08 2026
$end
$version
	Icarus Verilog
$end
$timescale
	1ps
$end
$scope module tb_vending_machine $end
$var wire 1 ! dispense $end
$var wire 1 " change_5 $end
$var reg 1 # clk $end
$var reg 1 $ coin_10 $end
$var reg 1 % coin_5 $end
$var reg 1 & rst $end
$var reg 1 ' done $end
$scope module dut $end
$var wire 1 # clk $end
$var wire 1 $ coin_10 $end
$var wire 1 % coin_5 $end
$var wire 1 & rst $end
$var reg 1 " change_5 $end
$var reg 1 ! dispense $end
$var reg 3 ( next_state [2:0] $end
$var reg 3 ) state [2:0] $end
$upscope $end
$upscope $end
$enddefinitions $end
$comment Show the parameter values. $end
$dumpall
$end
#0
$dumpvars
bx )
b0 (
0'
1&
0%
0$
0#
0"
0!
$end
#5000
b0 )
1#
#10000
0#
#15000
0&
1#
#20000
0#
#25000
b10 )
b100 (
1#
1$
#30000
b10 (
0$
0#
#35000
1#
#40000
b100 (
0#
1$
#45000
1"
1!
b0 (
b100 )
1#
#50000
b0 (
0$
0#
#55000
0"
0!
b0 )
1#
#60000
0#
1'
